<?xml version="1.0" encoding="utf-8"?>
<!-- Generator: Adobe Illustrator 18.1.0, SVG Export Plug-In . SVG Version: 6.00 Build 0)  -->
<svg version="1.1" id="Layer_1" xmlns="http://www.w3.org/2000/svg" xmlns:xlink="http://www.w3.org/1999/xlink" x="0px" y="0px"
	 viewBox="0 0 185.8 24.6" enable-background="new 0 0 185.8 24.6" xml:space="preserve">
<g>
	<path fill="#ffffff" d="M163.6,20l-0.5-0.9c1.7-0.8,2.1-1.6,2.1-3.7V5.4h1.2v9.9C166.4,17.8,165.6,19.2,163.6,20L163.6,20z"/>
	<path fill="#ffffff" d="M172.4,6.7L172.4,6.7l-1.6,4.9h3.1L172.4,6.7L172.4,6.7z M175.5,16.4l-1.2-3.9h-3.7l-1.2,3.7h-1.3l3.8-10.8h1.2l3.6,10.7
		L175.5,16.4L175.5,16.4z"/>
	<path fill="#ffffff" d="M182.5,16.4c-2.6,0-4.6-1.7-4.6-5.3c0-3.9,2.2-5.9,5.1-5.9c1.2,0,1.9,0.2,2.8,0.5l-0.5,1.1c-0.7-0.3-1.4-0.5-2.3-0.5
		c-2,0-3.8,1.6-3.8,4.4c0,3.1,1.1,4.7,4,4.7c0.8,0,1.7-0.3,2.3-0.6l0.4,1C184.9,16.2,183.8,16.4,182.5,16.4L182.5,16.4z"/>
</g>
<polyline fill="none" stroke="#ffffff" points="151,0 151,8.6 156.1,12.2 151,15.9 151,24.6 "/>
<g>
	<path fill="#ffffff" d="M1.5,16.1H0V8.9c0,0,1-0.1,2.1-0.1c2.2,0,3.6,1.2,3.6,3.2C5.7,14.6,4.1,16.1,1.5,16.1z M1.9,9.6c-0.5,0-0.9,0-0.9,0v5.5
		h0.7c1.7,0,2.9-1,2.9-3C4.6,10.5,3.5,9.6,1.9,9.6z"/>
	<path fill="#ffffff" d="M8.9,16.1V8.9h3.6v0.9H9.9v2.2h2.3v0.8H9.9v2.5h2.7v0.9H8.9z"/>
	<path fill="#ffffff" d="M17.4,16.2c-0.7,0-1.4-0.2-2-0.4l0.3-0.9c0.5,0.2,1,0.4,1.6,0.4c0.9,0,1.4-0.3,1.4-1.1c0-0.6-0.4-0.9-1-1.2l-1.1-0.5
		c-0.8-0.4-1.3-0.8-1.3-1.8c0-1.2,1.1-1.9,2.3-1.9c0.7,0,1.1,0.1,1.7,0.3L19,9.9c-0.4-0.2-0.8-0.3-1.3-0.3c-0.7,0-1.4,0.3-1.4,1.1
		c0,0.5,0.3,0.8,0.8,1l1.2,0.6c0.9,0.4,1.5,0.9,1.5,1.9C19.7,15.3,18.8,16.2,17.4,16.2z"/>
	<path fill="#ffffff" d="M22.8,16.1V8.9h1v7.2H22.8z"/>
	<path fill="#ffffff" d="M32.4,10c-0.5-0.2-1-0.4-1.6-0.4c-1.4,0-2.7,1-2.7,2.7c0,2,0.8,2.9,2.6,2.9c0.5,0,1-0.1,1-0.1v-2.6h1v3.3
		c0,0-0.9,0.4-2.5,0.4c-1.8,0-3.2-1.3-3.2-3.6c0-2.5,1.7-3.9,3.7-3.9c0.8,0,1.3,0.1,1.9,0.4L32.4,10z"/>
	<path fill="#ffffff" d="M40.5,16.2l-3.4-5.8h0l0.1,5.7h-0.9V8.9h1l3.3,5.6h0l-0.1-5.6h0.9V16L40.5,16.2z"/>
	<path fill="#ffffff" d="M55,16.3L53.5,15c-0.5,0.7-1.3,1.2-2.4,1.2c-1.2,0-2-0.7-2-1.8c0-0.9,0.5-1.4,1.2-2c-0.5-0.5-0.9-1.1-0.9-1.8
		c0-1.2,0.8-1.9,1.8-1.9c0.9,0,1.5,0.6,1.5,1.5c0,1-0.4,1.4-1.3,2.1l1.8,1.5c0.2-0.5,0.2-0.9,0.3-1.7h2v0.8h-1.3
		c0,0.5-0.2,1-0.3,1.4l1.7,1.3L55,16.3z M51,13c0,0-0.1-0.1-0.1-0.1c-0.4,0.3-0.9,0.8-0.9,1.4c0,0.7,0.5,1.2,1.3,1.2
		s1.3-0.4,1.6-0.9L51,13z M51.2,9.5c-0.6,0-0.9,0.4-0.9,1.1c0,0.5,0.2,0.9,0.7,1.4c0.6-0.5,1-0.9,1-1.6C52,9.9,51.7,9.5,51.2,9.5z"
		/>
	<path fill="#ffffff" d="M65,9.7v6.4h-1V9.7h-2V8.9h5v0.9H65z"/>
	<path fill="#ffffff" d="M69.8,16.1V8.9h3.6v0.9h-2.6v2.2h2.3v0.8h-2.3v2.5h2.7v0.9H69.8z"/>
	<path fill="#ffffff" d="M79.3,16.2c-1.8,0-3.1-1.2-3.1-3.6c0-2.6,1.5-3.9,3.5-3.9c0.8,0,1.3,0.1,1.9,0.4L81.1,10c-0.5-0.2-0.9-0.4-1.5-0.4
		c-1.3,0-2.4,1-2.4,2.7c0,2,0.7,3,2.5,3c0.6,0,1.1-0.2,1.5-0.4l0.3,0.8C80.9,16.1,80.2,16.2,79.3,16.2z"/>
	<path fill="#ffffff" d="M88.7,16.1v-3.3h-3.3v3.3h-1V8.9h1v3.1h3.3V8.9h1v7.2H88.7z"/>
	<path fill="#ffffff" d="M97.7,16.2l-3.4-5.8h0l0.1,5.7h-0.9V8.9h1l3.3,5.6h0l-0.1-5.6h0.9V16L97.7,16.2z"/>
	<path fill="#ffffff" d="M105.2,16.2c-2.5,0-3.3-1.8-3.3-3.7c0-1.9,0.9-3.7,3.3-3.7c2.5,0,3.3,1.8,3.3,3.7C108.5,14.4,107.6,16.2,105.2,16.2z
		 M105.2,9.6c-1.5,0-2.2,1.2-2.2,2.9c0,1.8,0.7,2.9,2.2,2.9c1.5,0,2.2-1.2,2.2-2.9C107.4,10.7,106.7,9.6,105.2,9.6z"/>
	<path fill="#ffffff" d="M111.7,16.1V8.9h1v6.4h2.8v0.9H111.7z"/>
	<path fill="#ffffff" d="M120.8,16.2c-2.5,0-3.3-1.8-3.3-3.7c0-1.9,0.9-3.7,3.3-3.7c2.5,0,3.3,1.8,3.3,3.7C124,14.4,123.2,16.2,120.8,16.2z
		 M120.8,9.6c-1.5,0-2.2,1.2-2.2,2.9c0,1.8,0.7,2.9,2.2,2.9c1.5,0,2.2-1.2,2.2-2.9C123,10.7,122.3,9.6,120.8,9.6z"/>
	<path fill="#ffffff" d="M132.2,10c-0.5-0.2-1-0.4-1.6-0.4c-1.4,0-2.7,1-2.7,2.7c0,2,0.8,2.9,2.6,2.9c0.5,0,1-0.1,1-0.1v-2.6h1v3.3
		c0,0-0.9,0.4-2.5,0.4c-1.8,0-3.2-1.3-3.2-3.6c0-2.5,1.7-3.9,3.7-3.9c0.8,0,1.3,0.1,1.9,0.4L132.2,10z"/>
	<path fill="#ffffff" d="M138.1,13v3h-1v-3L135,9l0.9-0.4l1.8,3.4h0l1.7-3.2h1.1L138.1,13z"/>
</g>
</svg>